@startuml
title Application

class TransferService {
    transfer(source, destination, amount)
    credit(destination, amount)
    cancel(id)
}

class AccountService {
    create(name, address)
    update(id, address)
}

@enduml
